data modify storage bf:op char set from storage bf:interpreter char
scoreboard players set i bf_math 0
data modify storage bf:interpreter i set value "0"
function bf:char/read2 with storage bf:interpreter